DFA count: 13
Avg DFA size: 4.38462
Number of state vars: 31
Number of env vars: 3
Number of sys vars: 9
Total node count: 213
Avg (trans) node count: 15.2308
Winning states node count: 32
Winning states node count: 342
Winning states node count: 1652
Winning states node count: 1365
Winning states node count: 1167
Winning states node count: 981
System wins in: 6 moves
Strategy node count: 55295
Elapsed time: 1535
Result: Realizable
