DFA count: 1
Avg DFA size: 516
Number of state vars: 10
Number of env vars: 8
Number of sys vars: 14
Total node count: 2892
Avg (trans) node count: 2873
Winning states node count: 20
Winning states node count: 19
Winning states node count: 24
Winning states node count: 23
Winning states node count: 25
Winning states node count: 28
Winning states node count: 28
Winning states node count: 26
Winning states node count: 27
Winning states node count: 30
Winning states node count: 30
Winning states node count: 28
Winning states node count: 27
Winning states node count: 29
Winning states node count: 29
Winning states node count: 27
Winning states node count: 26
Winning states node count: 29
Winning states node count: 29
Winning states node count: 29
Winning states node count: 27
Winning states node count: 30
Winning states node count: 30
Winning states node count: 30
Winning states node count: 28
Winning states node count: 31
Winning states node count: 31
Winning states node count: 31
Winning states node count: 28
Winning states node count: 29
Winning states node count: 29
Winning states node count: 29
Winning states node count: 26
Winning states node count: 24
Winning states node count: 22
Winning states node count: 24
Winning states node count: 22
Winning states node count: 27
Winning states node count: 25
Winning states node count: 27
Winning states node count: 24
Winning states node count: 29
Winning states node count: 27
Winning states node count: 29
Winning states node count: 24
Winning states node count: 28
Winning states node count: 26
Winning states node count: 28
Winning states node count: 23
Winning states node count: 28
Winning states node count: 26
Winning states node count: 28
Winning states node count: 24
Winning states node count: 29
Winning states node count: 27
Winning states node count: 29
Winning states node count: 24
Winning states node count: 28
Winning states node count: 26
Winning states node count: 28
Winning states node count: 23
Winning states node count: 26
Winning states node count: 24
Winning states node count: 25
Winning states node count: 21
Winning states node count: 23
Winning states node count: 24
Winning states node count: 24
Winning states node count: 24
Winning states node count: 27
Winning states node count: 27
Winning states node count: 27
Winning states node count: 26
Winning states node count: 29
Winning states node count: 29
Winning states node count: 29
Winning states node count: 26
Winning states node count: 28
Winning states node count: 28
Winning states node count: 28
Winning states node count: 25
Winning states node count: 28
Winning states node count: 28
Winning states node count: 28
Winning states node count: 26
Winning states node count: 29
Winning states node count: 29
Winning states node count: 29
Winning states node count: 26
Winning states node count: 28
Winning states node count: 28
Winning states node count: 28
Winning states node count: 25
Winning states node count: 26
Winning states node count: 26
Winning states node count: 26
Winning states node count: 24
Winning states node count: 20
Winning states node count: 20
Winning states node count: 20
Winning states node count: 21
Winning states node count: 24
Winning states node count: 24
Winning states node count: 23
Winning states node count: 24
Winning states node count: 27
Winning states node count: 27
Winning states node count: 25
Winning states node count: 24
Winning states node count: 26
Winning states node count: 26
Winning states node count: 24
Winning states node count: 23
Winning states node count: 26
Winning states node count: 26
Winning states node count: 24
Winning states node count: 25
Winning states node count: 28
Winning states node count: 28
Winning states node count: 25
Winning states node count: 25
Winning states node count: 27
Winning states node count: 27
Winning states node count: 24
Winning states node count: 22
Winning states node count: 23
Winning states node count: 21
Winning states node count: 14
System wins in: 128 moves
Strategy node count: 11000
Elapsed time: 452
Result: Realizable
