DFA count: 1
Avg DFA size: 12
Number of state vars: 4
Number of env vars: 2
Number of sys vars: 2
Total node count: 67
Avg (trans) node count: 62
Winning states node count: 6
Winning states node count: 7
System wins in: 2 moves
Strategy node count: 45
Elapsed time: 0
Result: Realizable
