DFA count: 5
Avg DFA size: 6.6
Number of state vars: 14
Number of env vars: 5
Number of sys vars: 5
Total node count: 261
Avg (trans) node count: 51.4
Winning states node count: 18
System wins in: 1 moves
Strategy node count: 48
Elapsed time: 1
Result: Realizable
