DFA count: 1
Avg DFA size: 140
Number of state vars: 8
Number of env vars: 5
Number of sys vars: 5
Total node count: 11257
Avg (trans) node count: 11214
Winning states node count: 44
Winning states node count: 53
System wins in: 2 moves
Strategy node count: 2133
Elapsed time: 48
Result: Realizable
