DFA count: 1
Avg DFA size: 7582
Number of state vars: 13
Number of env vars: 5
Number of sys vars: 5
Total node count: 1449556
Avg (trans) node count: 1.4485e+06
Winning states node count: 1059
System wins in: 1 moves
Strategy node count: 140733
Elapsed time: 15822
Result: Realizable
