DFA count: 1
Avg DFA size: 20
Number of state vars: 5
Number of env vars: 5
Number of sys vars: 5
Total node count: 498
Avg (trans) node count: 488
Winning states node count: 11
Elapsed time: 0
Result: Unrealizable
