DFA count: 4
Avg DFA size: 9.75
Number of state vars: 14
Number of env vars: 5
Number of sys vars: 5
Total node count: 335
Avg (trans) node count: 79.25
Winning states node count: 24
System wins in: 1 moves
Strategy node count: 137
Elapsed time: 1
Result: Realizable
