DFA count: 1
Avg DFA size: 498
Number of state vars: 9
Number of env vars: 5
Number of sys vars: 5
Total node count: 65790
Avg (trans) node count: 65691
Winning states node count: 100
Winning states node count: 106
System wins in: 2 moves
Strategy node count: 10819
Elapsed time: 272
Result: Realizable
