DFA count: 4
Avg DFA size: 4.25
Number of state vars: 9
Number of env vars: 5
Number of sys vars: 5
Total node count: 75
Avg (trans) node count: 17
Winning states node count: 11
Winning states node count: 18
System wins in: 2 moves
Strategy node count: 40
Elapsed time: 1
Result: Realizable
