DFA count: 4
Avg DFA size: 4.75
Number of state vars: 9
Number of env vars: 5
Number of sys vars: 5
Total node count: 123
Avg (trans) node count: 29
Winning states node count: 12
System wins in: 1 moves
Strategy node count: 7
Elapsed time: 0
Result: Realizable
