DFA count: 1
Avg DFA size: 731
Number of state vars: 10
Number of env vars: 5
Number of sys vars: 5
Total node count: 85392
Avg (trans) node count: 85218
Winning states node count: 175
System wins in: 1 moves
Strategy node count: 10253
Elapsed time: 464
Result: Realizable
