DFA count: 6
Avg DFA size: 5.66667
Number of state vars: 16
Number of env vars: 5
Number of sys vars: 5
Total node count: 259
Avg (trans) node count: 41
Winning states node count: 24
Winning states node count: 47
System wins in: 2 moves
Strategy node count: 415
Elapsed time: 4
Result: Realizable
