DFA count: 10
Avg DFA size: 8
Number of state vars: 31
Number of env vars: 5
Number of sys vars: 5
Total node count: 673
Avg (trans) node count: 64.7
Winning states node count: 51
Elapsed time: 5
Result: Unrealizable
