DFA count: 1
Avg DFA size: 72
Number of state vars: 7
Number of env vars: 5
Number of sys vars: 5
Total node count: 1680
Avg (trans) node count: 1656
Winning states node count: 25
System wins in: 1 moves
Strategy node count: 335
Elapsed time: 2
Result: Realizable
