DFA count: 1
Avg DFA size: 18
Number of state vars: 5
Number of env vars: 5
Number of sys vars: 5
Total node count: 282
Avg (trans) node count: 271
Winning states node count: 12
System wins in: 1 moves
Strategy node count: 57
Elapsed time: 0
Result: Realizable
