DFA count: 4
Avg DFA size: 11
Number of state vars: 14
Number of env vars: 5
Number of sys vars: 5
Total node count: 393
Avg (trans) node count: 92.5
Winning states node count: 28
System wins in: 1 moves
Strategy node count: 137
Elapsed time: 1
Result: Realizable
