DFA count: 1
Avg DFA size: 48
Number of state vars: 6
Number of env vars: 5
Number of sys vars: 5
Total node count: 2014
Avg (trans) node count: 1998
Winning states node count: 17
Winning states node count: 20
System wins in: 2 moves
Strategy node count: 789
Elapsed time: 10
Result: Realizable
