DFA count: 1
Avg DFA size: 954
Number of state vars: 10
Number of env vars: 5
Number of sys vars: 5
Total node count: 54333
Avg (trans) node count: 54126
Winning states node count: 208
Winning states node count: 181
System wins in: 2 moves
Strategy node count: 25028
Elapsed time: 374
Result: Realizable
