DFA count: 10
Avg DFA size: 7.2
Number of state vars: 31
Number of env vars: 5
Number of sys vars: 5
Total node count: 603
Avg (trans) node count: 58.1
Winning states node count: 46
Elapsed time: 9
Result: Unrealizable
