DFA count: 1
Avg DFA size: 9
Number of state vars: 4
Number of env vars: 5
Number of sys vars: 5
Total node count: 104
Avg (trans) node count: 97
Winning states node count: 8
System wins in: 1 moves
Strategy node count: 24
Elapsed time: 0
Result: Realizable
