DFA count: 4
Avg DFA size: 4.5
Number of state vars: 10
Number of env vars: 5
Number of sys vars: 5
Total node count: 96
Avg (trans) node count: 22.25
Winning states node count: 11
Winning states node count: 24
System wins in: 2 moves
Strategy node count: 79
Elapsed time: 1
Result: Realizable
