DFA count: 10
Avg DFA size: 5.3
Number of state vars: 26
Number of env vars: 5
Number of sys vars: 5
Total node count: 357
Avg (trans) node count: 34.3
Winning states node count: 33
Winning states node count: 87
System wins in: 2 moves
Strategy node count: 1611
Elapsed time: 11
Result: Realizable
