DFA count: 7
Avg DFA size: 7
Number of state vars: 22
Number of env vars: 5
Number of sys vars: 5
Total node count: 419
Avg (trans) node count: 57.7143
Winning states node count: 35
Elapsed time: 3
Result: Unrealizable
