DFA count: 1
Avg DFA size: 2376
Number of state vars: 12
Number of env vars: 5
Number of sys vars: 5
Total node count: 638545
Avg (trans) node count: 638153
Winning states node count: 393
Elapsed time: 3354
Result: Unrealizable
