DFA count: 1
Avg DFA size: 3
Number of state vars: 2
Number of env vars: 5
Number of sys vars: 5
Total node count: 10
Avg (trans) node count: 8
Winning states node count: 3
System wins in: 1 moves
Strategy node count: 1
Elapsed time: 0
Result: Realizable
