DFA count: 9
Avg DFA size: 5.55556
Number of state vars: 24
Number of env vars: 5
Number of sys vars: 5
Total node count: 391
Avg (trans) node count: 41.1111
Winning states node count: 34
Winning states node count: 79
System wins in: 2 moves
Strategy node count: 1274
Elapsed time: 27
Result: Realizable
