DFA count: 1
Avg DFA size: 49
Number of state vars: 6
Number of env vars: 5
Number of sys vars: 5
Total node count: 1013
Avg (trans) node count: 993
Winning states node count: 21
Winning states node count: 21
System wins in: 2 moves
Strategy node count: 393
Elapsed time: 3
Result: Realizable
