DFA count: 1
Avg DFA size: 1126
Number of state vars: 11
Number of env vars: 5
Number of sys vars: 5
Total node count: 118321
Avg (trans) node count: 118101
Winning states node count: 221
Winning states node count: 260
System wins in: 2 moves
Strategy node count: 32668
Elapsed time: 769
Result: Realizable
