DFA count: 4
Avg DFA size: 9
Number of state vars: 13
Number of env vars: 5
Number of sys vars: 5
Total node count: 285
Avg (trans) node count: 67.25
Winning states node count: 21
Winning states node count: 42
System wins in: 2 moves
Strategy node count: 327
Elapsed time: 2
Result: Realizable
