DFA count: 3
Avg DFA size: 7.66667
Number of state vars: 8
Number of env vars: 5
Number of sys vars: 5
Total node count: 137
Avg (trans) node count: 43
Winning states node count: 11
System wins in: 1 moves
Strategy node count: 46
Elapsed time: 0
Result: Realizable
